…
Last, instead of adding `html_text`, we now use `html_table`. This parses the code into an R dataframe.


```r
read_html("C:/Users/solvebjo/OneDrive - Universitetet i Oslo/Teaching/ISSSV1337/ISSSV1337/Week 2/links/Oranges.html") %>%
  html_node("#mw-content-text > div.mw-parser-output > table.infobox.nowrap") %>%
  html_table()
```

```
## # A tibble: 42 x 2
##    `Nutritional value per 100 g (3.5 oz)` `Nutritional value per 100 g (3.5 oz)`
##    <chr>                                  <chr>                                 
##  1 "Energy"                               "197 kJ (47 kcal)"                    
##  2 ""                                     ""                                    
##  3 "Carbohydrates"                        "11.75 g"                             
##  4 "Sugars"                               "9.35 g"                              
##  5 "Dietary fiber"                        "2.4 g"                               
##  6 ""                                     ""                                    
##  7 ""                                     ""                                    
##  8 "Fat"                                  "0.12 g"                              
##  9 ""                                     ""                                    
## 10 ""                                     ""                                    
## # ... with 32 more rows
```

Usually, you have to do a bit of extra work with the table after having extracted it, for example because there are empty cells, as in this case. This often requires a bit of data manipulation and string manipulation. We will be working more with strings and text in week 3. 


```r
read_html("C:/Users/solvebjo/OneDrive - Universitetet i Oslo/Teaching/ISSSV1337/ISSSV1337/Week 2/links/Oranges.html") %>%
  html_node("#mw-content-text > div.mw-parser-output > table.infobox.nowrap") %>%
  html_table() %>%
  na_if("") %>% # Replaces "" with NA
  na.omit() # Removes all NA
```

```
## # A tibble: 30 x 2
##    `Nutritional value per 100 g (3.5 oz)` `Nutritional value per 100 g (3.5 oz)`
##    <chr>                                  <chr>                                 
##  1 Energy                                 197 kJ (47 kcal)                      
##  2 Carbohydrates                          11.75 g                               
##  3 Sugars                                 9.35 g                                
##  4 Dietary fiber                          2.4 g                                 
##  5 Fat                                    0.12 g                                
##  6 Protein                                0.94 g                                
##  7 Vitamins                               Quantity %DV†                         
##  8 Vitamin A equiv.                       1% 11 µg                              
##  9 Thiamine (B1)                          8% 0.087 mg                           
## 10 Riboflavin (B2)                        3% 0.04 mg                            
## # ... with 20 more rows
```
…
