…
This package assumes that your data is in a dataframe. So if it's in a list, put it into a dataframe using for example `do.call(rbind, list)` or `enframe`. Once that is done, use the `unnest_tokens` function to tokenize the text. As arguments, add as `input` the name of the old column with the text, as `output` the name of the new column you are creating, and as `token` we specify "words" to get unigrams.


```r
westside_tokens <- westside %>%
  unnest_tokens(input = lyrics, # Which variable to get the text from
                output = word, # What the new variable should be called
                token = "words") # What kind of tokens we want to split the text into

westside_tokens
```

```
## # A tibble: 2,624 x 2
##    songname                     word   
##    <chr>                        <chr>  
##  1 a-boy-like-thati-have-a-love a      
##  2 a-boy-like-thati-have-a-love boy    
##  3 a-boy-like-thati-have-a-love like   
##  4 a-boy-like-thati-have-a-love that   
##  5 a-boy-like-thati-have-a-love who'd  
##  6 a-boy-like-thati-have-a-love kill   
##  7 a-boy-like-thati-have-a-love your   
##  8 a-boy-like-thati-have-a-love brother
##  9 a-boy-like-thati-have-a-love forget 
## 10 a-boy-like-thati-have-a-love that   
## # ... with 2,614 more rows
```

Had we wanted bigrams, we could specify `token = "ngrams"` and `n = 2`. 


```r
westside %>%
  unnest_tokens(input = lyrics, 
                output = word, 
                token = "ngrams",
                n = 2) 
```

```
## # A tibble: 2,610 x 2
##    songname                     word          
##    <chr>                        <chr>         
##  1 a-boy-like-thati-have-a-love a boy         
##  2 a-boy-like-thati-have-a-love boy like      
##  3 a-boy-like-thati-have-a-love like that     
##  4 a-boy-like-thati-have-a-love that who'd    
##  5 a-boy-like-thati-have-a-love who'd kill    
##  6 a-boy-like-thati-have-a-love kill your     
##  7 a-boy-like-thati-have-a-love your brother  
##  8 a-boy-like-thati-have-a-love brother forget
##  9 a-boy-like-thati-have-a-love forget that   
## 10 a-boy-like-thati-have-a-love that boy      
## # ... with 2,600 more rows
```

Or we can tokenize into sentences.


```r
westside %>%
  unnest_tokens(input = lyrics, 
                output = word, 
                token = "sentences")
```

```
## # A tibble: 275 x 2
##    songname                     word                                            
##    <chr>                        <chr>                                           
##  1 a-boy-like-thati-have-a-love a boy like that who'd kill your brother, forget~
##  2 a-boy-like-thati-have-a-love stick to your own kind!                         
##  3 a-boy-like-thati-have-a-love a boy like that will give you sorrow.           
##  4 a-boy-like-thati-have-a-love you'll meet another boy tomorrow, one of your o~
##  5 a-boy-like-thati-have-a-love stick to your own kind!                         
##  6 a-boy-like-thati-have-a-love a boy who kills cannot love, a boy who kills ha~
##  7 a-boy-like-thati-have-a-love and he's the boy who gets your love and gets yo~
##  8 a-boy-like-thati-have-a-love very smart, maria, very smart!                  
##  9 a-boy-like-thati-have-a-love a boy like that wants one thing only, and when ~
## 10 a-boy-like-thati-have-a-love he'll murder your love; he murdered mine.       
## # ... with 265 more rows
```

## Stopword removal with tokenized text

If we sort by songname and word and `count` the occurrences of words within each song, the variable `n` shows the number of words for each song from highest to lowest using `sort = TRUE`. Here, we see that stopwords such as "a", "i" and "is" are occurring rather frequently.


```r
westside_tokens %>%
  count(songname, word, sort = TRUE) # Counting the number of words per songsame and sorting from highest to lowest
```

```
## # A tibble: 1,224 x 3
##    songname                     word        n
##    <chr>                        <chr>   <int>
##  1 gee-officer-krupke           a          32
##  2 maria                        maria      23
##  3 i-feel-pretty                pretty     19
##  4 tonight-quintet              tonight    19
##  5 a-boy-like-thati-have-a-love i          17
##  6 america                      in         17
##  7 america                      america    16
##  8 gee-officer-krupke           is         16
##  9 jet-song                     you're     16
## 10 i-feel-pretty                and        15
## # ... with 1,214 more rows
```

To remove the stopwords, we can use `anti_join`. This is an alternative to going back to the character vector in the list and work with *regex*. When we have the data stored as words in a column in a dataframe, we can join against another similar dataframe and remove the cells that have the same word. The `tidytext` package has an inbuilt dataframe called `stop_words` containing stopwords that we might want to remove. Notice that the column in the stop_words dataframe that we want to `anti_join` against is called `word`, which means that to make things easier for ourselves, the column in our dataframe should also be called `word`.


```r
tidytext::stop_words # A dataframe with stopwords within the tidytext package
```

```
## # A tibble: 1,149 x 2
##    word        lexicon
##    <chr>       <chr>  
##  1 a           SMART  
##  2 a's         SMART  
##  3 able        SMART  
##  4 about       SMART  
##  5 above       SMART  
##  6 according   SMART  
##  7 accordingly SMART  
##  8 across      SMART  
##  9 actually    SMART  
## 10 after       SMART  
## # ... with 1,139 more rows
```

```r
westside_tokens <- westside_tokens %>%
  anti_join(stop_words, by = "word") # Joining against the stopwords dataframe to get rid of cells with stopwords

westside_tokens %>%
  count(songname, word, sort = TRUE)
```

```
## # A tibble: 568 x 3
##    songname                     word        n
##    <chr>                        <chr>   <int>
##  1 maria                        maria      23
##  2 i-feel-pretty                pretty     19
##  3 tonight-quintet              tonight    19
##  4 america                      america    16
##  5 tonight-duet                 tonight    13
##  6 i-feel-pretty                feel       12
##  7 cool                         boy        11
##  8 a-boy-like-thati-have-a-love love       10
##  9 gee-officer-krupke           krupke      9
## 10 a-boy-like-thati-have-a-love boy         8
## # ... with 558 more rows
```
…
$TF-IDF = \frac{TermFrequency}{InverseDocumentFrequency}$

To do calculate the TF-IDF in R, we can use the function `bind_tf_idf` from the `tidytext` package. This gives us both the term frequency (tf), the inverse document frequency (idf) and the term frequency inverse document frequency (tf-idf) for every token in the texts.


```r
westside_tokens <- westside_tokens %>%
  count(songname, stem, name = "count") %>%
  bind_tf_idf(stem, songname, count) # Making the tf-idf measure 

westside_tokens
```

```
## # A tibble: 554 x 6
##    songname                     stem    count     tf   idf tf_idf
##    <chr>                        <chr>   <int>  <dbl> <dbl>  <dbl>
##  1 a-boy-like-thati-have-a-love anita       4 0.0571  2.64 0.151 
##  2 a-boy-like-thati-have-a-love belong      1 0.0143  2.64 0.0377
##  3 a-boy-like-thati-have-a-love boi         8 0.114   1.03 0.118 
##  4 a-boy-like-thati-have-a-love brother     1 0.0143  1.54 0.0220
##  5 a-boy-like-thati-have-a-love care        1 0.0143  1.54 0.0220
##  6 a-boy-like-thati-have-a-love forev       1 0.0143  1.95 0.0278
##  7 a-boy-like-thati-have-a-love forget      1 0.0143  1.95 0.0278
##  8 a-boy-like-thati-have-a-love head        1 0.0143  1.95 0.0278
##  9 a-boy-like-thati-have-a-love hear        1 0.0143  2.64 0.0377
## 10 a-boy-like-thati-have-a-love heart       5 0.0714  1.95 0.139 
## # ... with 544 more rows
```
…
