…
If we have a categorical variable, it does not make sense to find either the mean, median, variance or standard deviation because there are no numerical values to calculate these statistics from. In these cases, we often just count the number of times different values occur.

We already had a look at this with calculating the mode. Here, I use somewhat of the same procedure by using `group_by` and `count`. I leave out the `slice_max` function which grabs only parts of the rows, and use instead `arrange` and `desc` to get the variable in descending order.


```r
costofliving %>%
  group_by(country) %>% # Find the next statistic per country
  count(name = "country_n") %>% # Count the number of instances (i.e. the number of countries per city)
  arrange(desc(country_n)) # Arrange in descending order so that the highest values come on top
```

```
## # A tibble: 162 x 2
## # Groups:   country [162]
##    country           country_n
##    <fct>                 <int>
##  1 " India"                 45
##  2 " United Kingdom"        34
##  3 "NA"                     29
##  4 " Canada"                26
##  5 " Germany"               25
##  6 " Italy"                 19
##  7 " Netherlands"           13
##  8 " Spain"                 13
##  9 " CA"                    12
## 10 " Poland"                 9
## # ... with 152 more rows
```
…
```r
all_countries <- costofliving %>%
  count(name = "all_countries") %>% 
  pull() # Fetch the value from the dataset, creating a vector

costofliving %>%
  group_by(country) %>% 
  count(name = "country_n") %>% 
  ungroup() %>%
  mutate(country_percentage = country_n/all_countries * 100) %>% # Make a new variable calculating the percentage, i.e. the count divided by the total multiplied by 100
  arrange(desc(country_percentage)) 
```

```
## # A tibble: 162 x 3
##    country           country_n country_percentage
##    <fct>                 <int>              <dbl>
##  1 " India"                 45               7.79
##  2 " United Kingdom"        34               5.88
##  3 "NA"                     29               5.02
##  4 " Canada"                26               4.50
##  5 " Germany"               25               4.33
##  6 " Italy"                 19               3.29
##  7 " Netherlands"           13               2.25
##  8 " Spain"                 13               2.25
##  9 " CA"                    12               2.08
## 10 " Poland"                 9               1.56
## # ... with 152 more rows
```
…
Alternatively, if you want to be a bit more advanced and do it with less code, you can use `summarise_at` and make a function. 


```r
costofliving %>%
  group_by(country) %>%
  summarise_at(vars("cofi", "rent_index", "groceries_index", "restaurant_price_index", "local_purchasing_power_index"), 
               function(x){mean(x, na.rm = TRUE)}) # This function is equivalent to the one above, but with less lines of code
```

```
## # A tibble: 162 x 6
##    country     cofi rent_index groceries_index restaurant_pric~ local_purchasin~
##    <fct>      <dbl>      <dbl>           <dbl>            <dbl>            <dbl>
##  1 " Bermuda" 149.        96.1           158.             155.              79.4
##  2 " Switzer~ 121.        61.2           125.             126.             124. 
##  3 "NA"        61.7       30.0            60.5             57.4             83.7
##  4 " Lebanon" 120.        27.8           141.             117.              15.4
##  5 " Norway"  102.        38.3            97.8            106.              87.1
##  6 " HI"      104.        65.1           115.              94.3             89.2
##  7 " NY"       80.5       49.0            78.6             78.3            106. 
##  8 " Iceland"  97.6       46.3            91.9            106.              74.8
##  9 " Jersey"   96.5      NaN              79.9            110.              80.4
## 10 " CA"       82.1       74.6            85.6             79.8            123. 
## # ... with 152 more rows
```
…
To change this, we could use `case_when` together with `mutate` and recode every value. 


```r
welfare_subset %>%
  mutate(country = case_when( # Make a new variable called country
    id == "AUS" ~ "Australia", # When the variable id is "AUS", give the country variable value "Australia"
    id == "BEL" ~ "Belgium",
    id == "CAN" ~ "Canada"
  ))
```

```
## # A tibble: 22 x 6
##    id    mgini ngini  rred lowpay country  
##    <chr> <dbl> <dbl> <dbl>  <dbl> <chr>    
##  1 AUL    NA    NA    NA    15.5  <NA>     
##  2 AUS    48.3  27.8  42.4  15.9  Australia
##  3 BEL    48.7  25.7  47.2   4.6  Belgium  
##  4 CAN    46    30.9  32.8  22.2  Canada   
##  5 DEN    49.1  26.3  46.4   8.24 <NA>     
##  6 FIN    48.1  25.5  47     7.77 <NA>     
##  7 FRA    49.2  29.5  40    NA    <NA>     
##  8 FRG    52.3  29.3  44    19.4  <NA>     
##  9 GRE    51.6  33.7  34.7  15.9  <NA>     
## 10 IRE    51.2  29.8  41.8  24    <NA>     
## # ... with 12 more rows
```
…
Which one to use depends on which rows it is important to keep onwards. If you only want the units that match perfectly on the key(s) of the two datasets, use `inner_join`. If you want to keep all units in the left dataset, use `left_join`, and if it is more important to maintain the units in the right dataset, use `right_join`. `full_join` keeps all units.


\includegraphics[width=0.8\linewidth]{../../figures/join-venn} 

The `left_join` function is the most used, possibly because it's more intuitive. You start with a dataset, keep all the rows, and add variables to the rows you have. Here, I use `left_join`, keeping all the units in the `costofliving_agg` dataset. The *key* is `country` -- to specify this, add `by = "country"`.


```r
costofliving_agg %>%
  left_join(welfare_subset, by = "country")
```

```
## # A tibble: 162 x 11
##    country     cofi rent_index groceries_index restaurant_pric~ local_purchasin~
##    <chr>      <dbl>      <dbl>           <dbl>            <dbl>            <dbl>
##  1 Bermuda    149.        96.1           158.             155.              79.4
##  2 Switzerla~ 121.        61.2           125.             126.             124. 
##  3 NA          61.7       30.0            60.5             57.4             83.7
##  4 Lebanon    120.        27.8           141.             117.              15.4
##  5 Norway     102.        38.3            97.8            106.              87.1
##  6 HI         104.        65.1           115.              94.3             89.2
##  7 NY          80.5       49.0            78.6             78.3            106. 
##  8 Iceland     97.6       46.3            91.9            106.              74.8
##  9 Jersey      96.5      NaN              79.9            110.              80.4
## 10 CA          82.1       74.6            85.6             79.8            123. 
## # ... with 152 more rows, and 5 more variables: id <chr>, mgini <dbl>,
## #   ngini <dbl>, rred <dbl>, lowpay <dbl>
```

Many `NA` are generated from using `left_join`. That's because values on the country variable such as `NY` and `HI` are not shared between the two datasets. What we get is 162 rows with lots of missing. If we use a `right_join`, we lose many of these rows -- now we only have 22 -- but they mostly have full data.


```r
costofliving_agg %>%
  right_join(welfare_subset, by = "country")
```

```
## # A tibble: 22 x 11
##    country     cofi rent_index groceries_index restaurant_pric~ local_purchasin~
##    <chr>      <dbl>      <dbl>           <dbl>            <dbl>            <dbl>
##  1 Norway     102.        38.3            97.8            106.              87.1
##  2 Japan       79.3       43.2            86.6             45.6             75.8
##  3 France      77.7       31.1            77.2             77.4             82.3
##  4 Australia   77.5       40.3            76.9             74.4            106. 
##  5 Luxembourg  83.0       63.4            75.8             95.2            100. 
##  6 Finland     76.1       23.2            68.8             84.6             92.6
##  7 New Zeala~  75.4       36.1            74.2             72.0             92.5
##  8 Sweden      75.5       31.6            68.8             77.5             94.1
##  9 Canada      71.4       37.3            70.5             69.8             93.1
## 10 Italy       67.5       23.1            60.3             68.9             59.4
## # ... with 12 more rows, and 5 more variables: id <chr>, mgini <dbl>,
## #   ngini <dbl>, rred <dbl>, lowpay <dbl>
```
…
Last, `full_join` keeps all units, matching the ones it can match and adding missing values to the rest. This dataset contains 173 rows^[This is composed of 162 rows from the `costofliving_agg` dataset plus 22 rows from the `welfare_subset` dataset, minus the 11 rows that they share].


```r
costofliving_agg %>%
  full_join(welfare_subset, by = "country")
```

```
## # A tibble: 173 x 11
##    country     cofi rent_index groceries_index restaurant_pric~ local_purchasin~
##    <chr>      <dbl>      <dbl>           <dbl>            <dbl>            <dbl>
##  1 Bermuda    149.        96.1           158.             155.              79.4
##  2 Switzerla~ 121.        61.2           125.             126.             124. 
##  3 NA          61.7       30.0            60.5             57.4             83.7
##  4 Lebanon    120.        27.8           141.             117.              15.4
##  5 Norway     102.        38.3            97.8            106.              87.1
##  6 HI         104.        65.1           115.              94.3             89.2
##  7 NY          80.5       49.0            78.6             78.3            106. 
##  8 Iceland     97.6       46.3            91.9            106.              74.8
##  9 Jersey      96.5      NaN              79.9            110.              80.4
## 10 CA          82.1       74.6            85.6             79.8            123. 
## # ... with 163 more rows, and 5 more variables: id <chr>, mgini <dbl>,
## #   ngini <dbl>, rred <dbl>, lowpay <dbl>
```
…
