…
We'll go through some of the main functions in the `tidyverse` package. However, first, it can be useful to change the names of the variables to something that does not have space, as it eases the work with the variables. To do this, load the package `janitor` and use the function `clean_names`. Here, we apply the pipe to the function, which basically means; go into the object `costofliving` and use the function `clean_names` on it.


```r
costofliving
```

```
## # A tibble: 578 x 7
##    city             cost_of_living_~ rent_index cost_of_living_~ groceries_index
##    <chr>                       <dbl>      <dbl>            <dbl>           <dbl>
##  1 Hamilton, Bermu~             149.       96.1            124.             158.
##  2 Zurich, Switzer~              NA        69.3            102.             136.
##  3 Basel,NA                     131.       49.4             92.7            137.
##  4 Zug, Switzerland             128.       72.1            102.             133.
##  5 Lugano, Switzer~             124.       45.0             87.0            129.
##  6 Lausanne, Switz~             122.       59.6             92.7            123.
##  7 Beirut, Lebanon              120.       27.8             77.0            141.
##  8 Bern, Switzerla~             118.       46.1             84.4            118.
##  9 Geneva, Switzer~             114.       75.0             95.8            113.
## 10 Stavanger, Norw~             105.       35.4             72.2            102.
## # ... with 568 more rows, and 2 more variables: restaurant_price_index <dbl>,
## #   local_purchasing_power_index <dbl>
```

```r
library(janitor)

costofliving <- costofliving %>%
  clean_names()

costofliving
```

```
## # A tibble: 578 x 7
##    city             cost_of_living_~ rent_index cost_of_living_~ groceries_index
##    <chr>                       <dbl>      <dbl>            <dbl>           <dbl>
##  1 Hamilton, Bermu~             149.       96.1            124.             158.
##  2 Zurich, Switzer~              NA        69.3            102.             136.
##  3 Basel,NA                     131.       49.4             92.7            137.
##  4 Zug, Switzerland             128.       72.1            102.             133.
##  5 Lugano, Switzer~             124.       45.0             87.0            129.
##  6 Lausanne, Switz~             122.       59.6             92.7            123.
##  7 Beirut, Lebanon              120.       27.8             77.0            141.
##  8 Bern, Switzerla~             118.       46.1             84.4            118.
##  9 Geneva, Switzer~             114.       75.0             95.8            113.
## 10 Stavanger, Norw~             105.       35.4             72.2            102.
## # ... with 568 more rows, and 2 more variables: restaurant_price_index <dbl>,
## #   local_purchasing_power_index <dbl>
```
…
```r
dataset %>%
  select(variable)
```

Recall that the dataset had 8 variables; `rank`, `city`, `cost_of_living_index`, `rent_index`, `cost_of_living_plus_rent_index`, `groceries_index`, `restaurant_price_index` and `local_purchasing_power_index`. If we only want a dataset with the two variables `cost_of_living_index` and `groceries_index`, we can use the `select` function.


```r
costofliving %>%
  select(cost_of_living_index, groceries_index) # Picking only these two variables
```

```
## # A tibble: 578 x 2
##    cost_of_living_index groceries_index
##                   <dbl>           <dbl>
##  1                 149.            158.
##  2                  NA             136.
##  3                 131.            137.
##  4                 128.            133.
##  5                 124.            129.
##  6                 122.            123.
##  7                 120.            141.
##  8                 118.            118.
##  9                 114.            113.
## 10                 105.            102.
## # ... with 568 more rows
```
It can also be used to remove variables that we do not want in the dataset. If we want to remove more than one variable, we have to add a `c` and wrap the variables in parantheses. 


```r
costofliving %>%
  select(-cost_of_living_index)
```

```
## # A tibble: 578 x 6
##    city             rent_index cost_of_living_~ groceries_index restaurant_pric~
##    <chr>                 <dbl>            <dbl>           <dbl>            <dbl>
##  1 Hamilton, Bermu~       96.1            124.             158.             155.
##  2 Zurich, Switzer~       69.3            102.             136.             133.
##  3 Basel,NA               49.4             92.7            137.             131.
##  4 Zug, Switzerland       72.1            102.             133.             131.
##  5 Lugano, Switzer~       45.0             87.0            129.             120.
##  6 Lausanne, Switz~       59.6             92.7            123.             127.
##  7 Beirut, Lebanon        27.8             77.0            141.             117.
##  8 Bern, Switzerla~       46.1             84.4            118.             121.
##  9 Geneva, Switzer~       75.0             95.8            113.             126.
## 10 Stavanger, Norw~       35.4             72.2            102.             108.
## # ... with 568 more rows, and 1 more variable:
## #   local_purchasing_power_index <dbl>
```

```r
costofliving %>%
  select(-c(cost_of_living_index, groceries_index))
```

```
## # A tibble: 578 x 5
##    city            rent_index cost_of_living_~ restaurant_pric~ local_purchasin~
##    <chr>                <dbl>            <dbl>            <dbl>            <dbl>
##  1 Hamilton, Berm~       96.1            124.              155.             79.4
##  2 Zurich, Switze~       69.3            102.              133.            130. 
##  3 Basel,NA              49.4             92.7             131.            112. 
##  4 Zug, Switzerla~       72.1            102.              131.            143. 
##  5 Lugano, Switze~       45.0             87.0             120.            112. 
##  6 Lausanne, Swit~       59.6             92.7             127.            127. 
##  7 Beirut, Lebanon       27.8             77.0             117.             15.4
##  8 Bern, Switzerl~       46.1             84.4             121.            112. 
##  9 Geneva, Switze~       75.0             95.8             126.            121. 
## 10 Stavanger, Nor~       35.4             72.2             108.             85.9
## # ... with 568 more rows
```
…
```r
dataset %>%
  filter(variable_name == value)
```

Curious about which cities that have a cost of living below 100 (meaning that they are cheaper than New York)? Ask for all units that score *less than* `<` 100 on the `cost_of_living_index`. 


```r
costofliving %>%
  filter(cost_of_living_index < 100)
```

```
## # A tibble: 535 x 7
##    city             cost_of_living_~ rent_index cost_of_living_~ groceries_index
##    <chr>                       <dbl>      <dbl>            <dbl>           <dbl>
##  1 Tromso, Norway               99.0       37.2             70.0            97.7
##  2 Reykjavik, Icel~             97.6       46.3             73.6            91.9
##  3 Saint Helier, J~             96.5       NA               81.8            79.9
##  4 Santa Barbara, ~             95.0       78.4             87.2            99.5
##  5 Tel Aviv-Yafo, ~             94.5       53.2             75.2            83.0
##  6 Berkeley, CA                 94.4       88.2             91.5           106. 
##  7 San Francisco, ~             93.9      108.             101.             97.0
##  8 Oakland, CA                  92.9       87.8             90.5            98.5
##  9 Anchorage, AK                91.2       39.3             66.9            98.0
## 10 NA, CA                       89.4       90.4             89.9           101. 
## # ... with 525 more rows, and 2 more variables: restaurant_price_index <dbl>,
## #   local_purchasing_power_index <dbl>
```
…
In this case, I change the name an abbreviation of the variable name, so that `cost_of_living_index` becomes `cofi`. 


```r
costofliving <- costofliving %>%
  rename(cofi = cost_of_living_index)

costofliving
```

```
## # A tibble: 578 x 7
##    city        cofi rent_index cost_of_living_~ groceries_index restaurant_pric~
##    <chr>      <dbl>      <dbl>            <dbl>           <dbl>            <dbl>
##  1 Hamilton,~  149.       96.1            124.             158.             155.
##  2 Zurich, S~   NA        69.3            102.             136.             133.
##  3 Basel,NA    131.       49.4             92.7            137.             131.
##  4 Zug, Swit~  128.       72.1            102.             133.             131.
##  5 Lugano, S~  124.       45.0             87.0            129.             120.
##  6 Lausanne,~  122.       59.6             92.7            123.             127.
##  7 Beirut, L~  120.       27.8             77.0            141.             117.
##  8 Bern, Swi~  118.       46.1             84.4            118.             121.
##  9 Geneva, S~  114.       75.0             95.8            113.             126.
## 10 Stavanger~  105.       35.4             72.2            102.             108.
## # ... with 568 more rows, and 1 more variable:
## #   local_purchasing_power_index <dbl>
```
…
A useful thing to do here would be to separate the `city` variable into `city` and `country`. The separator in this case is a comma `,`, but it could also have been for example a dot, a space or a word such as "and". 


```r
costofliving <- costofliving %>%
  separate(city, into = c("city", "country"), sep = ",")

costofliving
```

```
## # A tibble: 578 x 8
##    city      country         cofi rent_index cost_of_living_plu~ groceries_index
##    <chr>     <chr>          <dbl>      <dbl>               <dbl>           <dbl>
##  1 Hamilton  " Bermuda"      149.       96.1               124.             158.
##  2 Zurich    " Switzerland"   NA        69.3               102.             136.
##  3 Basel     "NA"            131.       49.4                92.7            137.
##  4 Zug       " Switzerland"  128.       72.1               102.             133.
##  5 Lugano    " Switzerland"  124.       45.0                87.0            129.
##  6 Lausanne  " Switzerland"  122.       59.6                92.7            123.
##  7 Beirut    " Lebanon"      120.       27.8                77.0            141.
##  8 Bern      " Switzerland"  118.       46.1                84.4            118.
##  9 Geneva    " Switzerland"  114.       75.0                95.8            113.
## 10 Stavanger " Norway"       105.       35.4                72.2            102.
## # ... with 568 more rows, and 2 more variables: restaurant_price_index <dbl>,
## #   local_purchasing_power_index <dbl>
```
…
```r
dataset %>%
  mutate(variable_name = operation())
```

For example, if we want a new variable with the restaurant purchasing power as a share of the local purchasing power, we can make a new variable where we divide the first by the second.


```r
costofliving %>%
  mutate(share_restaurant_purchasing_power = restaurant_price_index/local_purchasing_power_index)
```

```
## # A tibble: 578 x 9
##    city      country         cofi rent_index cost_of_living_plu~ groceries_index
##    <chr>     <chr>          <dbl>      <dbl>               <dbl>           <dbl>
##  1 Hamilton  " Bermuda"      149.       96.1               124.             158.
##  2 Zurich    " Switzerland"   NA        69.3               102.             136.
##  3 Basel     "NA"            131.       49.4                92.7            137.
##  4 Zug       " Switzerland"  128.       72.1               102.             133.
##  5 Lugano    " Switzerland"  124.       45.0                87.0            129.
##  6 Lausanne  " Switzerland"  122.       59.6                92.7            123.
##  7 Beirut    " Lebanon"      120.       27.8                77.0            141.
##  8 Bern      " Switzerland"  118.       46.1                84.4            118.
##  9 Geneva    " Switzerland"  114.       75.0                95.8            113.
## 10 Stavanger " Norway"       105.       35.4                72.2            102.
## # ... with 568 more rows, and 3 more variables: restaurant_price_index <dbl>,
## #   local_purchasing_power_index <dbl>, share_restaurant_purchasing_power <dbl>
```

### `ifelse` 

If you want to make a variable that takes the value 1 when the country is Norway, match it with `ifelse`. The `ifelse` function works like this:

If `condiction`, then give the new variable the given value, if not, give it the other value. In this case, if the variable `country` has value "Norway", give the new variable `norway` value `1`, else give the new variable value `0`. 


```r
costofliving %>%
  mutate(norway = ifelse(country == "Norway", 1, 0))
```

```
## # A tibble: 578 x 9
##    city      country         cofi rent_index cost_of_living_plu~ groceries_index
##    <chr>     <chr>          <dbl>      <dbl>               <dbl>           <dbl>
##  1 Hamilton  " Bermuda"      149.       96.1               124.             158.
##  2 Zurich    " Switzerland"   NA        69.3               102.             136.
##  3 Basel     "NA"            131.       49.4                92.7            137.
##  4 Zug       " Switzerland"  128.       72.1               102.             133.
##  5 Lugano    " Switzerland"  124.       45.0                87.0            129.
##  6 Lausanne  " Switzerland"  122.       59.6                92.7            123.
##  7 Beirut    " Lebanon"      120.       27.8                77.0            141.
##  8 Bern      " Switzerland"  118.       46.1                84.4            118.
##  9 Geneva    " Switzerland"  114.       75.0                95.8            113.
## 10 Stavanger " Norway"       105.       35.4                72.2            102.
## # ... with 568 more rows, and 3 more variables: restaurant_price_index <dbl>,
## #   local_purchasing_power_index <dbl>, norway <dbl>
```
…
A more useful distinction is, however, to look at the cost of living for each country. Then, we `group_by` country first, and then use `summarise` and `sum`. When using `group_by`, remember to `ungroup` afterwards.


```r
costofliving %>%
  group_by(country) %>%
  summarise(cofi = sum(cofi)) %>%
  ungroup()
```

```
## # A tibble: 162 x 2
##    country         cofi
##    <fct>          <dbl>
##  1 " Bermuda"     149. 
##  2 " Switzerland"  NA  
##  3 "NA"            NA  
##  4 " Lebanon"     120. 
##  5 " Norway"       NA  
##  6 " HI"          104. 
##  7 " NY"           NA  
##  8 " Iceland"      97.6
##  9 " Jersey"       96.5
## 10 " CA"          985. 
## # ... with 152 more rows
```
…
So, for example, to find the average cost of living in lagre cities in the respective countries, use `group_by`, `summarise` and `mean`. 


```r
costofliving %>%
  group_by(country) %>%
  summarise(cofi = mean(cofi)) %>%
  ungroup()
```

```
## # A tibble: 162 x 2
##    country         cofi
##    <fct>          <dbl>
##  1 " Bermuda"     149. 
##  2 " Switzerland"  NA  
##  3 "NA"            NA  
##  4 " Lebanon"     120. 
##  5 " Norway"       NA  
##  6 " HI"          104. 
##  7 " NY"           NA  
##  8 " Iceland"      97.6
##  9 " Jersey"       96.5
## 10 " CA"           82.1
## # ... with 152 more rows
```
…
Want to remove all rows that have one or more missing values? Use the function `na.omit`.


```r
costofliving %>%
  na.omit()
```

```
## # A tibble: 444 x 8
##    city      country         cofi rent_index cost_of_living_plu~ groceries_index
##    <chr>     <fct>          <dbl>      <dbl>               <dbl>           <dbl>
##  1 Hamilton  " Bermuda"      149.       96.1               124.             158.
##  2 Basel     "NA"            131.       49.4                92.7            137.
##  3 Zug       " Switzerland"  128.       72.1               102.             133.
##  4 Lugano    " Switzerland"  124.       45.0                87.0            129.
##  5 Lausanne  " Switzerland"  122.       59.6                92.7            123.
##  6 Beirut    " Lebanon"      120.       27.8                77.0            141.
##  7 Bern      " Switzerland"  118.       46.1                84.4            118.
##  8 Geneva    " Switzerland"  114.       75.0                95.8            113.
##  9 Stavanger " Norway"       105.       35.4                72.2            102.
## 10 Honolulu  " HI"           104.       65.1                85.6            115.
## # ... with 434 more rows, and 2 more variables: restaurant_price_index <dbl>,
## #   local_purchasing_power_index <dbl>
```

If you would like to more carefully select which variables you'd like to remove the missing values from, use `drop_na` and choose the variables where the rows with missing values should be removed. 


```r
costofliving %>%
  drop_na(country, city, cofi)
```

```
## # A tibble: 548 x 8
##    city      country         cofi rent_index cost_of_living_plu~ groceries_index
##    <chr>     <fct>          <dbl>      <dbl>               <dbl>           <dbl>
##  1 Hamilton  " Bermuda"      149.       96.1               124.             158.
##  2 Basel     "NA"            131.       49.4                92.7            137.
##  3 Zug       " Switzerland"  128.       72.1               102.             133.
##  4 Lugano    " Switzerland"  124.       45.0                87.0            129.
##  5 Lausanne  " Switzerland"  122.       59.6                92.7            123.
##  6 Beirut    " Lebanon"      120.       27.8                77.0            141.
##  7 Bern      " Switzerland"  118.       46.1                84.4            118.
##  8 Geneva    " Switzerland"  114.       75.0                95.8            113.
##  9 Stavanger " Norway"       105.       35.4                72.2            102.
## 10 Honolulu  " HI"           104.       65.1                85.6            115.
## # ... with 538 more rows, and 2 more variables: restaurant_price_index <dbl>,
## #   local_purchasing_power_index <dbl>
```
…
